{
  "project_info": {
    "project_number": "1092384681720",
    "firebase_url": "https://getnim.firebaseio.com",
    "project_id": "getnim",
    "storage_bucket": "getnim.appspot.com"
  },
  "client": [
    {
      "client_info": {
        "mobilesdk_app_id": "1:1092384681720:android:0fed172bc6ba6e1a",
        "android_client_info": {
          "package_name": "com.getnimapp.frozenbubble"
        }
      },
      "oauth_client": [
        {
          "client_id": "1092384681720-ve0mj4l5ffknisfhjs1pqnoefdftvf4k.apps.googleusercontent.com",
          "client_type": 3
        }
      ],
      "api_key": [
        {
          "current_key": "AIzaSyAveqBnQHmws0YurFUKxfeoIaMxm2RRv54"
        }
      ],
      "services": {
        "appinvite_service": {
          "other_platform_oauth_client": [
            {
              "client_id": "1092384681720-7civ0m8cn6ghcih4mtmb9lcr16c00ra4.apps.googleusercontent.com",
              "client_type": 3
            }
          ]
        }
      }
    },
    {
      "client_info": {
        "mobilesdk_app_id": "1:1092384681720:android:b2429e1790d52ac6",
        "android_client_info": {
          "package_name": "com.getnimapp.frozenbubble.debug"
        }
      },
      "oauth_client": [
        {
          "client_id": "1092384681720-ve0mj4l5ffknisfhjs1pqnoefdftvf4k.apps.googleusercontent.com",
          "client_type": 3
        }
      ],
      "api_key": [
        {
          "current_key": "AIzaSyAveqBnQHmws0YurFUKxfeoIaMxm2RRv54"
        }
      ],
      "services": {
        "appinvite_service": {
          "other_platform_oauth_client": [
            {
              "client_id": "1092384681720-7civ0m8cn6ghcih4mtmb9lcr16c00ra4.apps.googleusercontent.com",
              "client_type": 3
            }
          ]
        }
      }
    }
  ],
  "configuration_version": "1"
}
